{"page":1,"total_results":10000,"total_pages":500,"results":[{"original_name":"The Mandalorian","genre_ids":[10765,10759,37],"name":"The Mandalorian","popularity":2196.292,"origin_country":["US"],"vote_count":2585,"first_air_date":"2019-11-12","backdrop_path":"\/9ijMGlJKqcslswWUzTEwScm82Gs.jpg","original_language":"en","id":82856,"vote_average":8.5,"overview":"After the fall of the Galactic Empire, lawlessness has spread throughout the galaxy. A lone gunfighter makes his way through the outer reaches, earning his keep as a bounty hunter.","poster_path":"\/sWgBv7LV2PRoQgkxwlibdGXKz1S.jpg"},{"original_name":"Grey's Anatomy","genre_ids":[18],"name":"Grey's Anatomy","popularity":1050.724,"origin_country":["US"],"vote_count":4239,"first_air_date":"2005-03-27","backdrop_path":"\/zWX629wryQwpaIwsquP4BRUD6HT.jpg","original_language":"en","id":1416,"vote_average":8.1,"overview":"Follows the personal and professional lives of a group of doctors at Seattle’s Grey Sloan Memorial Hospital.","poster_path":"\/clnyhPqj1SNgpAdeSS6a6fwE6Bo.jpg"},{"original_name":"The Good Doctor","genre_ids":[18],"name":"The Good Doctor","popularity":1029.891,"origin_country":["US"],"vote_count":5663,"first_air_date":"2017-09-25","backdrop_path":"\/iDbIEpCM9nhoayUDTwqFL1iVwzb.jpg","original_language":"en","id":71712,"vote_average":8.6,"overview":"A young surgeon with Savant syndrome is recruited into the surgical unit of a prestigious hospital. The question will arise: can a person who doesn't have the ability to relate to people actually save their lives?","poster_path":"\/6tfT03sGp9k4c0J3dypjrI8TSAI.jpg"},{"original_name":"Fear the Walking Dead","genre_ids":[10759,18],"name":"Fear the Walking Dead","popularity":567.276,"origin_country":["US"],"vote_count":2639,"first_air_date":"2015-08-23","backdrop_path":"\/58PON1OrnBiX6CqEHgeWKVwrCn6.jpg","original_language":"en","id":62286,"vote_average":7.5,"overview":"What did the world look like as it was transforming into the horrifying apocalypse depicted in \"The Walking Dead\"? This spin-off set in Los Angeles, following new characters as they face the beginning of the end of the world, will answer that question.","poster_path":"\/wGFUewXPeMErCe2xnCmmLEiHOGh.jpg"},{"original_name":"Lucifer","genre_ids":[80,10765],"name":"Lucifer","popularity":556.691,"origin_country":["US"],"vote_count":6386,"first_air_date":"2016-01-25","backdrop_path":"\/ta5oblpMlEcIPIS2YGcq9XEkWK2.jpg","original_language":"en","id":63174,"vote_average":8.5,"overview":"Bored and unhappy as the Lord of Hell, Lucifer Morningstar abandoned his throne and retired to Los Angeles, where he has teamed up with LAPD detective Chloe Decker to take down criminals. But the longer he's away from the underworld, the greater the threat that the worst of humanity could escape.","poster_path":"\/4EYPN5mVIhKLfxGruy7Dy41dTVn.jpg"},{"original_name":"Supernatural","genre_ids":[18,9648,10765],"name":"Supernatural","popularity":465.679,"origin_country":["US"],"vote_count":4247,"first_air_date":"2005-09-13","backdrop_path":"\/nVRyd8hlg0ZLxBn9RaI7mUMQLnz.jpg","original_language":"en","id":1622,"vote_average":8.1,"overview":"When they were boys, Sam and Dean Winchester lost their mother to a mysterious and demonic supernatural force. Subsequently, their father raised them to be soldiers. He taught them about the paranormal evil that lives in the dark corners and on the back roads of America ... and he taught them how to kill it. Now, the Winchester brothers crisscross the country in their '67 Chevy Impala, battling every kind of supernatural threat they encounter along the way. ","poster_path":"\/KoYWXbnYuS3b0GyQPkbuexlVK9.jpg"},{"original_name":"The Boys","genre_ids":[10765,10759],"name":"The Boys","popularity":448.338,"origin_country":["US"],"vote_count":3573,"first_air_date":"2019-07-25","backdrop_path":"\/mGVrXeIjyecj6TKmwPVpHlscEmw.jpg","original_language":"en","id":76479,"vote_average":8.4,"overview":"A group of vigilantes known informally as “The Boys” set out to take down corrupt superheroes with no more than blue-collar grit and a willingness to fight dirty.","poster_path":"\/mY7SeH4HFFxW1hiI6cWuwCRKptN.jpg"},{"original_name":"The Queen's Gambit","genre_ids":[18],"name":"The Queen's Gambit","popularity":439.682,"origin_country":["US"],"vote_count":436,"first_air_date":"2020-10-23","backdrop_path":"\/5N5dSOrysuquExvn8Gpp5jMEf6u.jpg","original_language":"en","id":87739,"vote_average":8.8,"overview":"In a Kentucky orphanage in the 1950s, a young girl discovers an astonishing talent for chess while struggling with addiction.","poster_path":"\/zU0htwkhNvBQdVSIKB9s6hgVeFK.jpg"},{"original_name":"His Dark Materials","genre_ids":[18,10765],"name":"His Dark Materials","popularity":416.349,"origin_country":["GB"],"vote_count":554,"first_air_date":"2019-11-03","backdrop_path":"\/9yKCJTOh9m3Lol2RY3kw99QPH6x.jpg","original_language":"en","id":68507,"vote_average":8.1,"overview":"Lyra is an orphan who lives in a parallel universe in which science, theology and magic are entwined. Lyra's search for a kidnapped friend uncovers a sinister plot involving stolen children, and turns into a quest to understand a mysterious phenomenon called Dust. She is later joined on her journey by Will, a boy who possesses a knife that can cut windows between worlds. As Lyra learns the truth about her parents and her prophesied destiny, the two young people are caught up in a war against celestial powers that ranges across many worlds.","poster_path":"\/g6tIKGc3f1H5QMz1dcgCwADKpZ7.jpg"},{"original_name":"The Simpsons","genre_ids":[16,35,10751,18],"name":"The Simpsons","popularity":394.008,"origin_country":["US"],"vote_count":5324,"first_air_date":"1989-12-16","backdrop_path":"\/hpU2cHC9tk90hswCFEpf5AtbqoL.jpg","original_language":"en","id":456,"vote_average":7.7,"overview":"Set in Springfield, the average American town, the show focuses on the antics and everyday adventures of the Simpson family; Homer, Marge, Bart, Lisa and Maggie, as well as a virtual cast of thousands. Since the beginning, the series has been a pop culture icon, attracting hundreds of celebrities to guest star. The show has also made name for itself in its fearless satirical take on politics, media and American life in general.","poster_path":"\/2IWouZK4gkgHhJa3oyYuSWfSqbG.jpg"},{"original_name":"The Umbrella Academy","genre_ids":[10759,10765,35,18],"name":"The Umbrella Academy","popularity":383.897,"origin_country":["US"],"vote_count":4026,"first_air_date":"2019-02-15","backdrop_path":"\/mE3zzMkpP8yqlkzdjPsQmJHceoe.jpg","original_language":"en","id":75006,"vote_average":8.7,"overview":"A dysfunctional family of superheroes comes together to solve the mystery of their father's death, the threat of the apocalypse and more.","poster_path":"\/scZlQQYnDVlnpxFTxaIv2g0BWnL.jpg"},{"original_name":"The 100","genre_ids":[10765,18,10759],"name":"The 100","popularity":351.259,"origin_country":["US"],"vote_count":4997,"first_air_date":"2014-03-19","backdrop_path":"\/hTExot1sfn7dHZjGrk0Aiwpntxt.jpg","original_language":"en","id":48866,"vote_average":7.8,"overview":"100 years in the future, when the Earth has been abandoned due to radioactivity, the last surviving humans live on an ark orbiting the planet — but the ark won't last forever. So the repressive regime picks 100 expendable juvenile delinquents to send down to Earth to see if the planet is still habitable.","poster_path":"\/wcaDIAG1QdXQLRaj4vC1EFdBT2.jpg"},{"original_name":"Chicago P.D.","genre_ids":[80,18],"name":"Chicago P.D.","popularity":349.238,"origin_country":["US"],"vote_count":1031,"first_air_date":"2014-01-08","backdrop_path":"\/f9eLOgAiN8x7nFXbedYxb3KCKxR.jpg","original_language":"en","id":58841,"vote_average":8.3,"overview":"A riveting police drama about the men and women of the Chicago Police Department's District 21 who put it all on the line to serve and protect their community. District 21 is made up of two distinctly different groups: the uniformed cops who patrol the beat and go head-to-head with the city's street crimes and the Intelligence Unit that combats the city's major offenses - organized crime, drug trafficking, high profile murders and beyond.","poster_path":"\/OlPR1kctwXzSUJQkZINDDhNlHV.jpg"},{"original_name":"Riverdale","genre_ids":[18,9648],"name":"Riverdale","popularity":342.418,"origin_country":["US"],"vote_count":6636,"first_air_date":"2017-01-26","backdrop_path":"\/9hvhGtcsGhQY58pukw8w55UEUbL.jpg","original_language":"en","id":69050,"vote_average":8.6,"overview":"Set in the present, the series offers a bold, subversive take on Archie, Betty, Veronica and their friends, exploring the surreality of small-town life, the darkness and weirdness bubbling beneath Riverdale’s wholesome facade.","poster_path":"\/4X7o1ssOEvp4BFLim1AZmPNcYbU.jpg"},{"original_name":"The Walking Dead: World Beyond","genre_ids":[18,10765,9648],"name":"The Walking Dead: World Beyond","popularity":333.374,"origin_country":["US"],"vote_count":427,"first_air_date":"2020-10-04","backdrop_path":"\/pLVrN9B750ehwTFdQ6n3HRUERLd.jpg","original_language":"en","id":94305,"vote_average":7.8,"overview":"A heroic group of teens sheltered from the dangers of the post-apocalyptic world receive a message that inspires them to leave the safety of the only home they have ever known and embark on a cross-country journey to find the one man who can possibly save the world.","poster_path":"\/z31GxpVgDsFAF4paZR8PRsiP16D.jpg"},{"original_name":"The Vampire Diaries","genre_ids":[18,14,27,10749],"name":"The Vampire Diaries","popularity":331.801,"origin_country":["US"],"vote_count":4194,"first_air_date":"2009-09-10","backdrop_path":"\/k7T9xRyzP41wBVNyNeLmh8Ch7gD.jpg","original_language":"en","id":18165,"vote_average":8.3,"overview":"The story of two vampire brothers obsessed with the same girl, who bears a striking resemblance to the beautiful but ruthless vampire they knew and loved in 1864.","poster_path":"\/aBkVgChtyyJaHyZh1gfd8DbzQon.jpg"},{"original_name":"I Am...","genre_ids":[18],"name":"I Am...","popularity":325.61,"origin_country":[],"vote_count":5,"first_air_date":"2019-07-23","backdrop_path":"\/wgEWTYAAY7F04o4F20j0L1DGB8i.jpg","original_language":"en","id":91605,"vote_average":4.4,"overview":"Each hour-long film follows a different women as they experience “moments that are emotionally raw, thought-provoking and utterly personal”.","poster_path":"\/oogunE22HDTcTxFakKQbwqfw1qo.jpg"},{"original_name":"Game of Thrones","genre_ids":[10765,18,10759,9648],"name":"Game of Thrones","popularity":325.583,"origin_country":["US"],"vote_count":11512,"first_air_date":"2011-04-17","backdrop_path":"\/suopoADq0k8YZr4dQXcU6pToj6s.jpg","original_language":"en","id":1399,"vote_average":8.3,"overview":"Seven noble families fight for control of the mythical land of Westeros. Friction between the houses leads to full-scale war. All while a very ancient evil awakens in the farthest north. Amidst the war, a neglected military order of misfits, the Night's Watch, is all that stands between the realms of men and icy horrors beyond.","poster_path":"\/u3bZgnGQ9T01sWNhyveQz0wH0Hl.jpg"},{"original_name":"Station 19","genre_ids":[10759,18],"name":"Station 19","popularity":310.713,"origin_country":["US"],"vote_count":544,"first_air_date":"2018-03-22","backdrop_path":"\/PB1agKtni7zo4fea8yk6y4iE5L.jpg","original_language":"en","id":76773,"vote_average":8.2,"overview":"A group of heroic firefighters at Seattle Fire Station 19—from captain to newest recruit—risk their lives and hearts both in the line of duty and off the clock. These brave men and women are like family, literally and figuratively, and together they put their own lives in jeopardy as first responders to save the lives of others.","poster_path":"\/lcuCED5Ky2uM5VE6wILOwt5FEb0.jpg"},{"original_name":"The Blacklist","genre_ids":[18,80,9648],"name":"The Blacklist","popularity":302.267,"origin_country":["US"],"vote_count":1709,"first_air_date":"2013-09-23","backdrop_path":"\/zXpSJLcczUt6EfbdULZanguzy87.jpg","original_language":"en","id":46952,"vote_average":7.3,"overview":"Raymond \"Red\" Reddington, one of the FBI's most wanted fugitives, surrenders in person at FBI Headquarters in Washington, D.C. He claims that he and the FBI have the same interests: bringing down dangerous criminals and terrorists. In the last two decades, he's made a list of criminals and terrorists that matter the most but the FBI cannot find because it does not know they exist. Reddington calls this \"The Blacklist\". Reddington will co-operate, but insists that he will speak only to Elizabeth Keen, a rookie FBI profiler.","poster_path":"\/htJzeRcYI2ewMm4PTrg98UMXShe.jpg"}]}